<?xml version="1.0" encoding="UTF-8" standalone="no"?>
<!-- Created with Inkscape (http://www.inkscape.org/) -->

<svg
   xmlns:dc="http://purl.org/dc/elements/1.1/"
   xmlns:cc="http://creativecommons.org/ns#"
   xmlns:rdf="http://www.w3.org/1999/02/22-rdf-syntax-ns#"
   xmlns:svg="http://www.w3.org/2000/svg"
   xmlns="http://www.w3.org/2000/svg"
   xmlns:xlink="http://www.w3.org/1999/xlink"
   xmlns:sodipodi="http://sodipodi.sourceforge.net/DTD/sodipodi-0.dtd"
   xmlns:inkscape="http://www.inkscape.org/namespaces/inkscape"
   width="187.39087mm"
   height="341.84167mm"
   viewBox="0 0 187.39087 341.84167"
   version="1.1"
   id="svg8"
   inkscape:version="0.92.4 (5da689c313, 2019-01-14)"
   sodipodi:docname="drawing.svg">
  <defs
     id="defs2">
    <style
       id="style815">.cls-1{fill:none;}.cls-2{clip-path:url(#clip-path);}.cls-3{clip-path:url(#clip-path-3);}.cls-4{fill:url(#linear-gradient);}.cls-5{fill:#404041;}.cls-6{clip-path:url(#clip-path-5);}.cls-7{fill:url(#linear-gradient-2);}.cls-8{clip-path:url(#clip-path-6);}.cls-9{fill:url(#linear-gradient-3);}.cls-10{clip-path:url(#clip-path-7);}.cls-11{fill:url(#linear-gradient-4);}.cls-12{opacity:0.85;}.cls-13{clip-path:url(#clip-path-9);}.cls-14{fill:#fff;}.cls-15{clip-path:url(#clip-path-10);}.cls-16{clip-path:url(#clip-path-11);}.cls-17{clip-path:url(#clip-path-12);}.cls-18{clip-path:url(#clip-path-13);}.cls-19{clip-path:url(#clip-path-14);}</style>
    <clipPath
       id="clip-path">
      <rect
         id="rect817"
         height="2400"
         width="4000"
         class="cls-1"
         x="0"
         y="0"
         style="fill:none" />
    </clipPath>
    <clipPath
       id="clip-path-3">
      <path
         id="path820"
         d="m 2046.58,1760.69 a 85.31,85.31 0 1 0 85.31,-85.31 85.31,85.31 0 0 0 -85.31,85.31"
         class="cls-1"
         inkscape:connector-curvature="0"
         style="fill:none" />
    </clipPath>
    <linearGradient
       gradientUnits="userSpaceOnUse"
       gradientTransform="matrix(42.65,0,0,-42.65,14049.09,-16529.96)"
       y2="-428.82001"
       x2="-277.39001"
       y1="-428.82001"
       x1="-281.39001"
       id="linear-gradient">
      <stop
         id="stop823"
         stop-color="#69bfac"
         offset="0" />
      <stop
         id="stop825"
         stop-color="#037e68"
         offset="0.59" />
      <stop
         id="stop827"
         stop-color="#037e68"
         offset="1" />
    </linearGradient>
    <clipPath
       id="clip-path-5">
      <path
         id="path830"
         d="m 1887.52,1355.63 c -100.41,-6.24 -195.1,-12.47 -241.56,8.92 v 162.63 c 103.56,-40.23 229.95,-34.86 337.48,-29.5 97,4.84 178.71,9.68 214.43,-19 l 0.22,-147 c -64.2,38.77 -191.42,31.38 -310.57,24"
         class="cls-1"
         inkscape:connector-curvature="0"
         style="fill:none" />
    </clipPath>
    <linearGradient
       xlink:href="#linear-gradient"
       gradientTransform="matrix(138.03,0,0,-138.03,44947,-52379.78)"
       y2="-389.82999"
       x2="-309.70001"
       y1="-389.82999"
       x1="-313.70001"
       id="linear-gradient-2" />
    <clipPath
       id="clip-path-6">
      <path
         id="path834"
         d="m 1888.71,1109 c -98.49,-5.23 -192.27,-10.45 -242.75,10.08 v 162.62 c 103.54,-40.22 230,-34.7 337.62,-29.18 97.15,5 178.94,10 214.66,-18.7 v -151.28 c -64.72,39.08 -190.57,32.77 -309.54,26.45"
         class="cls-1"
         inkscape:connector-curvature="0"
         style="fill:none" />
    </clipPath>
    <linearGradient
       xlink:href="#linear-gradient"
       gradientTransform="matrix(138.07,0,0,-138.07,44959.63,-52456.17)"
       y2="-388.48001"
       x2="-309.70999"
       y1="-388.48001"
       x1="-313.70999"
       id="linear-gradient-3" />
    <clipPath
       id="clip-path-7">
      <path
         id="path838"
         d="m 2037.4,712.85 h 73.75 c 2.84,26.46 -2.36,140.4 -149.37,144.66 -74.82,5.17 -135.76,4.92 -183.85,4.66 -70.72,-0.37 -113.64,-0.74 -132,16.12 v 157.91 c 71.88,-23.95 244.72,-18 346.07,-27.73 226,-21.75 266.63,-161.68 278.92,-296.6 h 83.2 L 2196.24,554 Z"
         class="cls-1"
         inkscape:connector-curvature="0"
         style="fill:none" />
    </clipPath>
    <linearGradient
       xlink:href="#linear-gradient"
       gradientTransform="matrix(177.05,0,0,-177.05,57627.06,-67169.19)"
       y2="-383.88"
       x2="-312.19"
       y1="-383.88"
       x1="-316.19"
       id="linear-gradient-4" />
    <clipPath
       id="clip-path-9">
      <rect
         id="rect842"
         height="157.71001"
         width="34.5"
         y="1349.72"
         x="1713.9399"
         class="cls-1"
         style="fill:none" />
    </clipPath>
    <clipPath
       id="clip-path-10">
      <rect
         id="rect845"
         height="161.08"
         width="11.69"
         y="1351.8101"
         x="1690.47"
         class="cls-1"
         style="fill:none" />
    </clipPath>
    <clipPath
       id="clip-path-11">
      <rect
         id="rect848"
         height="158.49001"
         width="34.529999"
         y="1104.52"
         x="1709.23"
         class="cls-1"
         style="fill:none" />
    </clipPath>
    <clipPath
       id="clip-path-12">
      <rect
         id="rect851"
         height="161.28999"
         width="11.68"
         y="1107.4"
         x="1685.74"
         class="cls-1"
         style="fill:none" />
    </clipPath>
    <clipPath
       id="clip-path-13">
      <rect
         id="rect854"
         height="161.88"
         width="34.689999"
         y="862.06"
         x="1709.2"
         class="cls-1"
         style="fill:none" />
    </clipPath>
    <clipPath
       id="clip-path-14">
      <rect
         id="rect857"
         height="163.67"
         width="11.76"
         y="863.40997"
         x="1685.6801"
         class="cls-1"
         style="fill:none" />
    </clipPath>
    <linearGradient
       inkscape:collect="always"
       xlink:href="#linear-gradient"
       id="linearGradient992"
       gradientUnits="userSpaceOnUse"
       gradientTransform="matrix(42.65,0,0,-42.65,14049.09,-16529.96)"
       x1="-281.39001"
       y1="-428.82001"
       x2="-277.39001"
       y2="-428.82001" />
  </defs>
  <sodipodi:namedview
     id="base"
     pagecolor="#ffffff"
     bordercolor="#666666"
     borderopacity="1.0"
     inkscape:pageopacity="0.0"
     inkscape:pageshadow="2"
     inkscape:zoom="0.35"
     inkscape:cx="-94.446965"
     inkscape:cy="597.42858"
     inkscape:document-units="mm"
     inkscape:current-layer="layer1"
     showgrid="false"
     inkscape:window-width="1920"
     inkscape:window-height="1013"
     inkscape:window-x="-9"
     inkscape:window-y="-9"
     inkscape:window-maximized="1" />
  <metadata
     id="metadata5">
    <rdf:RDF>
      <cc:Work
         rdf:about="">
        <dc:format>image/svg+xml</dc:format>
        <dc:type
           rdf:resource="http://purl.org/dc/dcmitype/StillImage" />
        <dc:title></dc:title>
      </cc:Work>
    </rdf:RDF>
  </metadata>
  <g
     inkscape:label="Layer 1"
     inkscape:groupmode="layer"
     id="layer1"
     transform="translate(-4.5783785,34.938685)">
    <g
       id="g924"
       clip-path="url(#clip-path)"
       class="cls-2"
       transform="matrix(0.26458333,0,0,0.26458333,-430.89166,-181.51785)">
      <g
         id="g922"
         clip-path="url(#clip-path)"
         class="cls-2">
        <g
           id="g866"
           clip-path="url(#clip-path-3)"
           class="cls-3">
          <rect
             id="rect864"
             height="170.62"
             width="170.62"
             y="1675.38"
             x="2046.58"
             class="cls-4"
             style="fill:url(#linearGradient992)" />
        </g>
        <g
           id="g870"
           clip-path="url(#clip-path)"
           class="cls-2">
          <path
             id="path868"
             d="m 1646,878.3 v 156 c -5.75,19.65 182.17,51.72 283.81,76.78 15.13,4.72 -217.84,-19.1 -283.81,10.21 v 160.39 c 0,0.74 0,-0.57 0,0 0,1.27 -12,16.06 300,76.93 0,0 -243.45,-23.6 -300,5.92 v 162.63 c 0.1,35.1 313.3,28.22 401.13,155.75 0,0 23.9,-24.55 63.88,-34.3 43.17,-10.53 72.1,-0.94 72.1,-0.94 0,0 -48,-112.75 -164.54,-148.28 105.89,0 135.41,5.78 177,-20.7 0,-50.11 2.33,-146.15 2.33,-146.15 0,0 16.09,-26.12 -232.58,-81 143.7,2 183,10.59 230.62,-17.77 l 2.33,-151.28 c -12.78,-26.95 -145.59,-50.7 -225.84,-76.59"
             class="cls-5"
             inkscape:connector-curvature="0"
             style="fill:#404041" />
        </g>
        <g
           id="g874"
           clip-path="url(#clip-path-5)"
           class="cls-6">
          <rect
             id="rect872"
             height="195.52"
             width="552.13"
             y="1331.66"
             x="1645.96"
             class="cls-7"
             style="fill:url(#linear-gradient-2)" />
        </g>
        <g
           id="g878"
           clip-path="url(#clip-path-6)"
           class="cls-8">
          <rect
             id="rect876"
             height="199.16"
             width="552.28003"
             y="1082.54"
             x="1645.96"
             class="cls-9"
             style="fill:url(#linear-gradient-3)" />
        </g>
        <g
           id="g882"
           clip-path="url(#clip-path-7)"
           class="cls-10">
          <rect
             id="rect880"
             height="482.20001"
             width="708.19"
             y="554"
             x="1645.96"
             class="cls-11"
             style="fill:url(#linear-gradient-4)" />
        </g>
        <g
           id="g920"
           clip-path="url(#clip-path)"
           class="cls-2">
          <g
             id="g888"
             class="cls-12"
             style="opacity:0.85">
            <g
               id="g886"
               clip-path="url(#clip-path-9)"
               class="cls-13">
              <path
                 id="path884"
                 d="m 1748.43,1501.44 -19.45,3.08 -15,2.92 0.34,-156.6 c -0.06,0 13.35,-0.82 20.29,-0.94 7.34,-0.12 12.76,-0.17 12.76,-0.17 z"
                 class="cls-14"
                 inkscape:connector-curvature="0"
                 style="fill:#ffffff" />
            </g>
          </g>
          <g
             id="g894"
             class="cls-12"
             style="opacity:0.85">
            <g
               id="g892"
               clip-path="url(#clip-path-10)"
               class="cls-15">
              <path
                 id="path890"
                 d="m 1702.16,1510 -11.69,2.88 0.28,-159.85 c 0,0 3.82,-0.5 5.69,-0.7 l 5.18,-0.54 z"
                 class="cls-14"
                 inkscape:connector-curvature="0"
                 style="fill:#ffffff" />
            </g>
          </g>
          <g
             id="g900"
             class="cls-12"
             style="opacity:0.85">
            <g
               id="g898"
               clip-path="url(#clip-path-11)"
               class="cls-16">
              <path
                 id="path896"
                 d="m 1743.76,1256.67 -19.68,3.37 -14.85,3 0.36,-156.85 c -0.07,0 12.58,-0.94 19.51,-1.23 7.58,-0.32 13.51,-0.41 13.51,-0.41 z"
                 class="cls-14"
                 inkscape:connector-curvature="0"
                 style="fill:#ffffff" />
            </g>
          </g>
          <g
             id="g906"
             class="cls-12"
             style="opacity:0.85">
            <g
               id="g904"
               clip-path="url(#clip-path-12)"
               class="cls-17">
              <path
                 id="path902"
                 d="m 1697.42,1265.64 -11.68,3 0.3,-159.84 c 0,0 4,-0.6 5.84,-0.84 l 5,-0.61 z"
                 class="cls-14"
                 inkscape:connector-curvature="0"
                 style="fill:#ffffff" />
            </g>
          </g>
          <g
             id="g912"
             class="cls-12"
             style="opacity:0.85">
            <g
               id="g910"
               clip-path="url(#clip-path-13)"
               class="cls-18">
              <path
                 id="path908"
                 d="m 1743.89,1020.58 -19.14,1.66 -15.54,1.71 0.27,-161.25 c -0.06,0 13.22,-0.52 20.19,-0.56 7.34,0 13.21,-0.07 13.21,-0.07 z"
                 class="cls-14"
                 inkscape:connector-curvature="0"
                 style="fill:#ffffff" />
            </g>
          </g>
          <g
             id="g918"
             class="cls-12"
             style="opacity:0.85">
            <g
               id="g916"
               clip-path="url(#clip-path-14)"
               class="cls-19">
              <path
                 id="path914"
                 d="m 1697.45,1025.42 -11.76,1.66 0.23,-162.66 c 0,0 3.86,-0.4 5.74,-0.59 2.31,-0.25 5.13,-0.42 5.13,-0.42 z"
                 class="cls-14"
                 inkscape:connector-curvature="0"
                 style="fill:#ffffff" />
            </g>
          </g>
        </g>
      </g>
    </g>
  </g>
</svg>
